{
    "prepare_queue": {
        "installed": [],
        "uninstalled": []
    },
    "config_munge": {
        "files": {}
    },
    "installed_plugins": {
        "cordova-build-architecture": {
            "PACKAGE_NAME": "com.gamasoft.consultadoctor.ro"
        },
        "cordova-plugin-android-permissions": {
            "PACKAGE_NAME": "com.gamasoft.consultadoctor.ro"
        },
        "cordova-plugin-appminimize": {
            "PACKAGE_NAME": "com.gamasoft.consultadoctor.ro"
        },
        "cordova-plugin-background-mode": {
            "PACKAGE_NAME": "com.gamasoft.consultadoctor.ro"
        },
        "cordova-plugin-braintree": {
            "PACKAGE_NAME": "com.gamasoft.consultadoctor.ro"
        },
        "cordova-plugin-console": {
            "PACKAGE_NAME": "com.gamasoft.consultadoctor.ro"
        },
        "cordova-plugin-crosswalk-webview": {
            "XWALK_VERSION": "22+",
            "XWALK_LITEVERSION": "xwalk_core_library_canary:17+",
            "XWALK_COMMANDLINE": "--disable-pull-to-refresh-effect",
            "XWALK_MODE": "embedded",
            "XWALK_MULTIPLEAPK": "true",
            "PACKAGE_NAME": "com.gamasoft.consultadoctor.ro"
        },
        "cordova-plugin-device": {
            "PACKAGE_NAME": "com.gamasoft.consultadoctor.ro"
        },
        "cordova-plugin-facebook4": {
            "APP_ID": "237535376360927",
            "APP_NAME": "ConsultaDoctor.ro",
            "PACKAGE_NAME": "com.gamasoft.consultadoctor.ro"
        },
        "cordova-plugin-geolocation": {
            "PACKAGE_NAME": "com.gamasoft.consultadoctor.ro"
        },
        "cordova-plugin-sim": {
            "PACKAGE_NAME": "com.gamasoft.consultadoctor.ro"
        },
        "cordova-plugin-splashscreen": {
            "PACKAGE_NAME": "com.gamasoft.consultadoctor.ro"
        },
        "cordova-plugin-statusbar": {
            "PACKAGE_NAME": "com.gamasoft.consultadoctor.ro"
        },
        "cordova-plugin-whitelist": {
            "PACKAGE_NAME": "com.gamasoft.consultadoctor.ro"
        },
        "de.appplant.cordova.plugin.local-notification": {
            "PACKAGE_NAME": "com.gamasoft.consultadoctor.ro"
        },
        "ionic-plugin-deeplinks": {
            "URL_SCHEME": "consultadoctor",
            "DEEPLINK_SCHEME": "https",
            "DEEPLINK_HOST": "consultadoctor.ro",
            "ANDROID_PATH_PREFIX": "/",
            "ANDROID_2_PATH_PREFIX": "/",
            "ANDROID_3_PATH_PREFIX": "/",
            "ANDROID_4_PATH_PREFIX": "/",
            "ANDROID_5_PATH_PREFIX": "/",
            "DEEPLINK_2_SCHEME": " ",
            "DEEPLINK_2_HOST": " ",
            "DEEPLINK_3_SCHEME": " ",
            "DEEPLINK_3_HOST": " ",
            "DEEPLINK_4_SCHEME": " ",
            "DEEPLINK_4_HOST": " ",
            "DEEPLINK_5_SCHEME": " ",
            "DEEPLINK_5_HOST": " ",
            "PACKAGE_NAME": "com.gamasoft.consultadoctor.ro"
        },
        "ionic-plugin-keyboard": {
            "PACKAGE_NAME": "com.gamasoft.consultadoctor.ro"
        },
        "phonegap-plugin-push": {
            "SENDER_ID": "882582227414",
            "PACKAGE_NAME": "com.gamasoft.consultadoctor.ro"
        }
    },
    "dependent_plugins": {
        "cordova-plugin-app-event": {
            "PACKAGE_NAME": "com.gamasoft.consultadoctor.ro"
        },
        "cordova-plugin-compat": {
            "PACKAGE_NAME": "com.gamasoft.consultadoctor.ro"
        }
    }
}